\relax 
\babel@aux{english}{}
\newlabel{eq:solutions}{{1}{1}}
\newlabel{eq:residuals}{{2}{1}}
\newlabel{eq:residualnorms}{{3}{1}}
\newlabel{eq:uM}{{4}{1}}
\newlabel{eq:subspace}{{5}{1}}
\newlabel{eq:minimization}{{6}{2}}
\newlabel{eq:h}{{7}{2}}
\newlabel{eq:beta}{{8}{2}}
\newlabel{eq:xi}{{9}{2}}
\newlabel{eq:q}{{10}{2}}
\newlabel{eq:uA}{{11}{2}}
\newlabel{eq:select1}{{12}{2}}
\newlabel{eq:select2}{{13}{3}}
\newlabel{eq:select3}{{14}{3}}
\newlabel{eq:restart1}{{18}{3}}
\newlabel{eq:restart2}{{19}{3}}
\newlabel{eq:restart3}{{20}{3}}
